<?xml version="1.0" encoding="UTF-8"?>
<svg xmlns="http://www.w3.org/2000/svg" xmlns:xlink="http://www.w3.org/1999/xlink" width="82px" height="82px" viewBox="0 0 82 82" version="1.1">
<defs>
<linearGradient id="linear0" gradientUnits="userSpaceOnUse" x1="63.33" y1="84.03" x2="241.67" y2="84.03" gradientTransform="matrix(0.320312,0,0,-0.320312,-1.483047,83.627187)">
<stop offset="0" style="stop-color:rgb(4.705882%,34.901961%,64.313725%);stop-opacity:1;"/>
<stop offset="1" style="stop-color:rgb(6.666667%,29.019608%,54.509804%);stop-opacity:1;"/>
</linearGradient>
<filter id="alpha" filterUnits="objectBoundingBox" x="0%" y="0%" width="100%" height="100%">
  <feColorMatrix type="matrix" in="SourceGraphic" values="0 0 0 0 1 0 0 0 0 1 0 0 0 0 1 0 0 0 1 0"/>
</filter>
<mask id="mask0">
  <g filter="url(#alpha)">
<rect x="0" y="0" width="82" height="82" style="fill:rgb(0%,0%,0%);fill-opacity:0.34902;stroke:none;"/>
  </g>
</mask>
<radialGradient id="radial0" gradientUnits="userSpaceOnUse" cx="161.83" cy="68.91" fx="161.83" fy="68.91" r="95.38" gradientTransform="matrix(0.320312,0,0,-0.304297,-1.483047,78.130625)">
<stop offset="0.72" style="stop-color:rgb(0%,0%,0%);stop-opacity:0;"/>
<stop offset="0.95" style="stop-color:rgb(0%,0%,0%);stop-opacity:0.529412;"/>
<stop offset="1" style="stop-color:rgb(0%,0%,0%);stop-opacity:1;"/>
</radialGradient>
<clipPath id="clip1">
  <rect x="0" y="0" width="82" height="82"/>
</clipPath>
<g id="surface5" clip-path="url(#clip1)">
<path style=" stroke:none;fill-rule:nonzero;fill:url(#radial0);" d="M 74.007812 61.03125 C 72.914062 61.605469 71.789062 62.109375 70.632812 62.539062 C 66.953125 63.917969 63.058594 64.617188 59.132812 64.609375 C 43.976562 64.609375 30.773438 54.183594 30.773438 40.804688 C 30.8125 37.152344 32.824219 33.804688 36.035156 32.058594 C 22.324219 32.632812 18.800781 46.917969 18.800781 55.289062 C 18.800781 78.953125 40.613281 81.351562 45.3125 81.351562 C 47.84375 81.351562 51.667969 80.617188 53.960938 79.890625 L 54.378906 79.75 C 63.203125 76.699219 70.730469 70.734375 75.710938 62.839844 C 76.027344 62.34375 75.964844 61.699219 75.5625 61.273438 C 75.160156 60.847656 74.519531 60.746094 74.007812 61.03125 Z M 74.007812 61.03125 "/>
</g>
<linearGradient id="linear1" gradientUnits="userSpaceOnUse" x1="157.35" y1="161.39" x2="45.96" y2="40.06" gradientTransform="matrix(0.320312,0,0,-0.320312,-1.483047,83.627187)">
<stop offset="0" style="stop-color:rgb(10.588235%,61.568627%,88.627451%);stop-opacity:1;"/>
<stop offset="0.16" style="stop-color:rgb(8.235294%,58.431373%,87.45098%);stop-opacity:1;"/>
<stop offset="0.67" style="stop-color:rgb(2.352941%,50.196078%,84.313725%);stop-opacity:1;"/>
<stop offset="1" style="stop-color:rgb(0%,47.058824%,83.137255%);stop-opacity:1;"/>
</linearGradient>
<mask id="mask1">
  <g filter="url(#alpha)">
<rect x="0" y="0" width="82" height="82" style="fill:rgb(0%,0%,0%);fill-opacity:0.411765;stroke:none;"/>
  </g>
</mask>
<radialGradient id="radial1" gradientUnits="userSpaceOnUse" cx="-340.29" cy="62.99" fx="-340.29" fy="62.99" r="143.24" gradientTransform="matrix(0.0480469,-0.317109,-0.25625,-0.0384375,55.096953,-41.743125)">
<stop offset="0.76" style="stop-color:rgb(0%,0%,0%);stop-opacity:0;"/>
<stop offset="0.95" style="stop-color:rgb(0%,0%,0%);stop-opacity:0.501961;"/>
<stop offset="1" style="stop-color:rgb(0%,0%,0%);stop-opacity:1;"/>
</radialGradient>
<clipPath id="clip2">
  <rect x="0" y="0" width="82" height="82"/>
</clipPath>
<g id="surface8" clip-path="url(#clip2)">
<path style=" stroke:none;fill-rule:nonzero;fill:url(#radial1);" d="M 33.859375 77.328125 C 31.003906 75.554688 28.527344 73.234375 26.578125 70.496094 C 22.074219 64.328125 20.53125 56.488281 22.355469 49.074219 C 24.179688 41.660156 29.1875 35.429688 36.035156 32.058594 C 37.035156 31.585938 38.742188 30.734375 41.011719 30.777344 C 44.257812 30.800781 47.300781 32.339844 49.242188 34.941406 C 50.535156 36.667969 51.25 38.757812 51.277344 40.917969 C 51.277344 40.847656 59.113281 15.417969 25.652344 15.417969 C 11.59375 15.417969 0.0273438 28.765625 0.0273438 40.472656 C -0.0273438 46.664062 1.296875 52.792969 3.90625 58.410156 C 12.734375 77.242188 34.265625 86.484375 54 79.90625 C 47.242188 82.035156 39.894531 81.097656 33.890625 77.34375 Z M 33.859375 77.328125 "/>
</g>
<radialGradient id="radial2" gradientUnits="userSpaceOnUse" cx="113.37" cy="570.21" fx="113.37" fy="570.21" r="202.43" gradientTransform="matrix(-0.0128125,0.320313,0.682266,0.025625,-379.304453,-35.750078)">
<stop offset="0" style="stop-color:rgb(20.784314%,75.686275%,94.509804%);stop-opacity:1;"/>
<stop offset="0.11" style="stop-color:rgb(20.392157%,75.686275%,92.941176%);stop-opacity:1;"/>
<stop offset="0.23" style="stop-color:rgb(18.431373%,76.078431%,87.45098%);stop-opacity:1;"/>
<stop offset="0.31" style="stop-color:rgb(16.862745%,76.470588%,82.352941%);stop-opacity:1;"/>
<stop offset="0.67" style="stop-color:rgb(21.176471%,78.039216%,32.156863%);stop-opacity:1;"/>
</radialGradient>
<radialGradient id="radial3" gradientUnits="userSpaceOnUse" cx="376.52" cy="567.97" fx="376.52" fy="567.97" r="97.34" gradientTransform="matrix(0.0896875,0.3075,0.249844,-0.0736719,-98.781172,-49.142344)">
<stop offset="0" style="stop-color:rgb(40%,92.156863%,43.137255%);stop-opacity:1;"/>
<stop offset="1" style="stop-color:rgb(40%,92.156863%,43.137255%);stop-opacity:0;"/>
</radialGradient>
</defs>
<g id="surface1">
<path style=" stroke:none;fill-rule:nonzero;fill:url(#linear0);" d="M 74.007812 61.03125 C 72.914062 61.605469 71.789062 62.109375 70.632812 62.539062 C 66.953125 63.917969 63.058594 64.617188 59.132812 64.609375 C 43.976562 64.609375 30.773438 54.183594 30.773438 40.804688 C 30.8125 37.152344 32.824219 33.804688 36.035156 32.058594 C 22.324219 32.632812 18.800781 46.917969 18.800781 55.289062 C 18.800781 78.953125 40.613281 81.351562 45.3125 81.351562 C 47.84375 81.351562 51.667969 80.617188 53.960938 79.890625 L 54.378906 79.75 C 63.203125 76.699219 70.730469 70.734375 75.710938 62.839844 C 76.027344 62.34375 75.964844 61.699219 75.5625 61.273438 C 75.160156 60.847656 74.519531 60.746094 74.007812 61.03125 Z M 74.007812 61.03125 "/>
<use xlink:href="#surface5" mask="url(#mask0)"/>
<path style=" stroke:none;fill-rule:nonzero;fill:url(#linear1);" d="M 33.859375 77.328125 C 31.003906 75.554688 28.527344 73.234375 26.578125 70.496094 C 22.074219 64.328125 20.53125 56.488281 22.355469 49.074219 C 24.179688 41.660156 29.1875 35.429688 36.035156 32.058594 C 37.035156 31.585938 38.742188 30.734375 41.011719 30.777344 C 44.257812 30.800781 47.300781 32.339844 49.242188 34.941406 C 50.535156 36.667969 51.25 38.757812 51.277344 40.917969 C 51.277344 40.847656 59.113281 15.417969 25.652344 15.417969 C 11.59375 15.417969 0.0273438 28.765625 0.0273438 40.472656 C -0.0273438 46.664062 1.296875 52.792969 3.90625 58.410156 C 12.734375 77.242188 34.265625 86.484375 54 79.90625 C 47.242188 82.035156 39.894531 81.097656 33.890625 77.34375 Z M 33.859375 77.328125 "/>
<use xlink:href="#surface8" mask="url(#mask1)"/>
<path style=" stroke:none;fill-rule:nonzero;fill:url(#radial2);" d="M 48.785156 47.683594 C 48.527344 48.019531 47.730469 48.484375 47.730469 49.496094 C 47.730469 50.332031 48.273438 51.132812 49.242188 51.808594 C 53.847656 55.011719 62.53125 54.589844 62.554688 54.589844 C 65.96875 54.582031 69.316406 53.660156 72.25 51.917969 C 78.273438 48.398438 81.984375 41.953125 81.996094 34.976562 C 82.078125 27.800781 79.433594 23.027344 78.363281 20.914062 C 71.578125 7.636719 56.925781 0 40.992188 0 C 18.574219 -0.00390625 0.308594 18.003906 -0.0078125 40.421875 C 0.148438 28.71875 11.78125 19.265625 25.617188 19.265625 C 26.738281 19.265625 33.132812 19.375 39.070312 22.492188 C 44.304688 25.242188 47.046875 28.558594 48.953125 31.847656 C 50.933594 35.265625 51.285156 39.585938 51.285156 41.304688 C 51.285156 43.023438 50.40625 45.574219 48.785156 47.683594 Z M 48.785156 47.683594 "/>
<path style=" stroke:none;fill-rule:nonzero;fill:url(#radial3);" d="M 48.785156 47.683594 C 48.527344 48.019531 47.730469 48.484375 47.730469 49.496094 C 47.730469 50.332031 48.273438 51.132812 49.242188 51.808594 C 53.847656 55.011719 62.53125 54.589844 62.554688 54.589844 C 65.96875 54.582031 69.316406 53.660156 72.25 51.917969 C 78.273438 48.398438 81.984375 41.953125 81.996094 34.976562 C 82.078125 27.800781 79.433594 23.027344 78.363281 20.914062 C 71.578125 7.636719 56.925781 0 40.992188 0 C 18.574219 -0.00390625 0.308594 18.003906 -0.0078125 40.421875 C 0.148438 28.71875 11.78125 19.265625 25.617188 19.265625 C 26.738281 19.265625 33.132812 19.375 39.070312 22.492188 C 44.304688 25.242188 47.046875 28.558594 48.953125 31.847656 C 50.933594 35.265625 51.285156 39.585938 51.285156 41.304688 C 51.285156 43.023438 50.40625 45.574219 48.785156 47.683594 Z M 48.785156 47.683594 "/>
</g>
</svg>
